…
You only need to install a package once, but you need to reload it every time you start a new session.

If we need to be explicit about where a function (or dataset) comes from, we’ll use the special form package::function(). For example, ggplot2::ggplot() tells you explicitly that we’re using the ggplot() function from the ggplot2 package.

First steps

Let’s use our first graph to answer a question: Do cars with big engines use more fuel than cars with small engines? You probably already have an answer, but try to make your answer precise. What does the relationship between engine size and fuel efficiency look like? Is it positive? Negative? Linear? Nonlinear?

The mpg data frame

You can test your answer with the mpg data frame found in ggplot2 (aka ggplot2::mpg). A data frame is a rectangular collection of variables (in the columns) and observations (in the rows). mpg contains observations collected by the US Environment Protection Agency on 38 models of car.

mpg
#> # A tibble: 234 x 11
#>   manufacturer model displ  year   cyl      trans   drv   cty   hwy    fl
#>          <chr> <chr> <dbl> <int> <int>      <chr> <chr> <int> <int> <chr>
#> 1         audi    a4   1.8  1999     4   auto(l5)     f    18    29     p
#> 2         audi    a4   1.8  1999     4 manual(m5)     f    21    29     p
#> 3         audi    a4   2.0  2008     4 manual(m6)     f    20    31     p
#> 4         audi    a4   2.0  2008     4   auto(av)     f    21    30     p
#> 5         audi    a4   2.8  1999     6   auto(l5)     f    16    26     p
#> 6         audi    a4   2.8  1999     6 manual(m5)     f    18    26     p
#> # ... with 228 more rows, and 1 more variables: class <chr>
…
